prcod	intpla	sex	age	educat	curwor	asi1_med	asi2_emp	asi3_alc	asi4_dr	asi5_leg	asi6_fam	asi7_psy	asid3_dyr	tlfba2	tlfbh2	st	ha	se	cravin	rabdru	rubsex	gaf	bdi	sstati	end	endpo
4	1	0	18	1	1	0.19	0.7	0.12	0.3	0.06	0.5	0.2	3	8.9	231.7	0	1	0	4.6	1	4	55	25	60	0	5
2	2	1	30	4	1	0.44	0.23	0.006	0.27	0	0.62	0	1	0.3	727.8	0	0	0	9.7	4	5	55	39	50	0	5
2	1	0	23	2	0	0.5	1	0.3	0.3	0.07	0.6	0.2	5	7.9	1189	0	0	0	9.5	6	1	45	29	55	0	2
4	1	0	20	2	1	0	0.8	0.05	0.26	0	0.39	0.22	2	1.3	671	0	1	0	2.7	11	4	40	28	58	0	5
3	2	0	20	2	0	0	0.75	0.78	0.23	0	0.7	0.61	4	72	50	0	0	0	3	19	4	40	28	58	0	2
1	1	0	24	2	0	0.52	0.5	0.1	0.3	0.07	0.63	0.49	3	5.95	1844	0	0	0	10	3	2	41	33	68	0	2
3	1	0	31	2	0	0	1	0.088	0.42	0.15	0.95	0.34	4	180.3	422.2	1	0	0	7.8	9	7	40	23	55	1	1
1	1	0	33	2	1	0	0.24	0.04	0.28	0.14	0.73	0.34	2.5	0.35	438.9	0	1	0	3.8	1	7	45	24	54	0	2
3	1	0	20	2	0	0	1	0.01	0.3	0.24	0.63	0.19	2.5	396	305.5	0	1	0	3.1	13	3	40	24	49	1	1
2	2	1	27	2	0	0.16	1	0.02	0.29	0	0	0.47	5	14.5	688.9	1	0	0	0.8	9	8	41	40	56	0	2
2	1	0	25	2	0	0	0.96	0	0.34	0.19	0.63	0.46	2	0	154	1	1	0	4.8	12	7	45	31	55	0	5
2	1	1	19	1	1	0.7	0.19	0.1	0.3	0.06	0.3	0.29	5	5.9	933.3	0	0	0	5.6	6	5	45	24	45	1	1
3	2	0	29	2	0	0	0.5	0.006	0.3	0.07	0.46	0.63	6	0.2	3111	1	0	0	4	1	5	41	33	57	0	5
4	1	1	17	2	0	0.6	1	0.15	0.3	0.05	0.4	0.4	1	5.3	116	0	0	0	4.6	4	5	45	23	65	1	1
4	2	0	25	2	0	0.83	0.75	0	0.24	0.27	0.4	0.24	3	0	3072	0	0	0	0.1	12	11	45	26	45	1	1
3	1	0	22	2	0	0	1	0.03	0.33	0.71	0.62	0.25	2	5.4	155	0	1	0	6	12	2	41	18	55	1	1
2	1	1	26	2	0	0.4	1	0.16	0.3	0.05	0.3	0.8	8	1.1	389	0	0	0	3.7	10	7	45	31	61	0	2
2	1	0	23	2	0	0	1	0.11	0.31	0.87	0.48	0.19	4	25.6	678	0	0	0	5	12	5	40	36	46	0	2
3	1	0	24	1	1	0.6	0.25	0.16	0.3	0.06	0.6	0.05	4	9.3	844	0	0	0	8.2	12	8	51	18	44	1	1
1	2	0	22	2	0	0.28	1	0.02	0.23	0.23	0.72	0.55	2	0.88	850	1	0	0	9	14	10	41	22	51	0	5
2	1	1	32	2	0	0.6	1	0.08	0.3	0.07	0.45	0.05	3	0.7	551	0	0	0	5	15	4	45	28	63	0	5
2	1	1	19	1	0	0.54	1	0.11	0.3	0.06	0.42	0.32	3	1.06	1290	0	0	0	2.5	8	8	45	42	46	0	2
4	1	0	25	2	0	0	1	0.01	0.33	0.03	0.52	0.25	3	2.9	234.4	0	0	0	8.2	10	7	40	18	42	0	2
3	1	0	22	2	1	0.36	0.69	0.13	0.3	0	0.52	0.3	6	15.4	497	0	0	0	2.8	8	6	45	27	58	0	2
2	1	0	26	2	0	0.36	1	0.5	0.4	0.05	0.7	0.2	5	59.9	236	0	0	0	10	19	9	41	21	38	0	3
4	2	1	25	2	0	0.39	1	0.006	0.27	0.02	0.66	0.55	2	3.8	130.6	0	0	0	5.5	8	6	41	38	44	1	1
4	1	0	20	2	0	0.17	0.5	0.1	0.3	0.07	0.63	0.32	1	7.9	987	0	0	0	5.1	9	6	45	17	44	0	2
4	1	0	32	2	0	0.18	0.5	0.08	0.3	0.06	0.43	0.14	8	5.3	933	0	0	0	0.7	1	5	45	17	46	1	1
1	1	0	23	2	0	0.37	0.5	0.12	0.3	0.07	0.48	0.19	2	42.3	667	0	0	0	1	5	3	55	19	46	0	5
1	1	1	23	1	0	0.53	0.9	0.23	0.3	0.03	0.54	0.3	6	4.4	100	0	0	0	5.8	6	5	45	24	50	1	1
2	2	1	20	2	0	0	1	0.08	0.27	0.2	0.63	0.54	4	16	1166.7	0	0	1	1	12	10	45	43	65	0	2
3	1	1	18	2	0	0.2	1	0.3	0.3	0.04	0.65	0.5	1	0.5	40	0	0	0	0.8	8	1	51	21	43	1	1
3	1	0	22	2	1	0.3	0.25	0.05	0.3	0.05	0.4	0.05	2	1.1	303	0	0	0	7.3	16	7	50	24	40	1	1
2	2	1	23	4	0	0.57	1	0.01	0.27	0.02	0.33	0.66	3	0.9	221	1	0	1	3	19	8	45	39	62	0	2
2	1	0	18	2	0	0.3	1	0.26	0.39	0.06	0.54	0.09	3	23.8	1744	0	1	0	6.5	9	3	48	19	44	0	2
2	1	0	24	2	0	0	1	0.066	0.32	0	0.69	0.26	3	14.7	580	0	0	0	7.5	1	5	40	20	55	0	2
1	1	1	26	2	1	0.2	0.7	0.1	0.3	0.05	0.2	0.16	2	0.7	96	0	0	0	4.7	1	5	55	29	56	0	5
4	2	1	22	2	0	0.1	1	0.21	0.29	0.5	0.2	0.42		62.7	444.4	0	0	1	7	10	5	45	22	46	0	2
1	1	0	26	2	0	0.5	1	0.09	0.3	0.06	0.53	0.32	1	0.9	448	0	0	0	1.7	12	4	45	23	54	0	5
3	1	0	34	2	0	0.3	1	0.1	0.3	0.05	0.1	0.2	7	4.8	1000	0	0	0	4.3	3	6	41	31	53	0	2
1	1	1	21	2	0	0.56	1	0.08	0.3	0.08	0.7	0.18	2	0.4	1622	0	0	0	8.7	1	3	45	20	62	0	3
1	1	0	31	2	0	0.37	0.5	0.09	0.32	0.08	0.59	0.25	3	16.9	2000	0	0	0	2	14	3	45	31	51	0	2
3	1	0	31	2	1	0	0.74	0.06	0.31	0	0.59	0.22	1	5.7	17.33	0	0	0	1.4	10	4	45	25	50	0	2
3	1	1	23	2	1	0	0.71	0	0.27	0	0.56	0	6	0.73	203.3	0	0	0	0	1	3	38	12	54	0	2
2	1	1	18	2	0	0.3	1	0.08	0.3	0.05	0.5	0.23	3	0	196	0	0	0	9.3	11	6	45	48	71	0	5
3	1	0	32	2	0	0	0.75	0	0.27	0.27	0.51	0.23	4	0	1000	0	0	0	0.8	12	6	35	16	59	0	5
3	2	0	23	3	0	0	1	0.79	0.66	0.8	0.05	0.41	5	89.9	2488.9	1	1	1	0.5	5	5	41	4	39	0	5
3	2	0	19	2	0	0	1	0.01	0.24	0	0.04	0.38	1	0.53	257.8	1	1	1	0.5	5	7	50	10	36	0	5
3	2	0	24	2	0	0.2	1	0	0.21	0.3	0.1	0.5	3	0	775	0	0	0	9	7	5	51	26	54	0	2
1	1	0	23	1	1	0.58	0.19	0.11	0.32	0.06	0.38	0.1	4	31.7	236	0	1	0	2.3	6	7	50	20	72	0	5
4	2	0	20	2	1	0.24	0.25	0.02	0.4	0.6	0.48	0.41	4	6.17	263.9	0	1	0	5	9	7	55	13	43	0	2
4	1	1	23	2	1	0.17	0.7	0.08	0.3	0	0.54	0.05	2	0	110	0	0	0	7.5	1	5	45	9	39	0	2
3	1	0	23	2	0	0.59	1	0.11	0.32	0.07	0.26	0.27	4	31.7	878	0	0	0	9.5	4	8	45	38	62	0	2
3	1	0	27	2	0	0	1	0.07	0.23	0.32	0.47	0.19	10	9.6	230.6	0	0	0	3.5	13	6	40	16	44	1	1
2	1	0	19	1	0	0	1	0.01	0.29	0.5	0.65	0.29	3	3.9	397.7	0	0	0	0.9	14	5	40	31	56	0	2
4	2	1	20	2	0	0.91	0.75	0.23	0.24	0.2	0.24	0.69	5	38.6	361	0	0	0	3.9	9	12	41	16	53	1	1
4	1	0	27	2	0	0	1	0.1	0.26	0.07	0.78	0.19	5	17.5	132.2	0	0	0	9.2	5	9	40	39	52	0	2
1	1	0	24	2	0	0.6	1	0.13	0.3	0.25	0.3	0.62	4	3.9	200	0	0	0	9	1	1	45	28	58	0	5
4	2	0	18	2	0	0	1	0	0.22	0.6	0.6	0.51	1	3.67	513.3	0	1	1	7	12	2	50	17	41	0	2
2	1	1	23	2	0	0	1	0.03	0.33	0.25	0.43	0.27	2.5	5.3	1386	1	0	0	1	16	9	40	37	63	0	2
1	2	0	18	2	0	0	1	0	0.3	0.4	0.35	0	4	1.3	933.3	0	0	1	9	1	4	50	6	60	0	2
1	2	0	20	2	0	0.25	0.56	0	0.33	0.2	0.33	0.38	5	0	950	1	1	1	1	13	7	50	21	63	0	3
3	1	0	21	3	1	0.58	0.19	0.14	0.3	0.07	0.93	0.18	3	5.3	1711	0	0	0	6.5	6	5	50	25	48	0	3
3	1	0	27	1	1	0.83	0.69	0.08	0.3	0.06	0.6	0.16	5	1.72	2500	0	0	0	4.7	8	4	65	21	33	0	2
2	1	0	25	3	1	0	0.24	0.11	0.31	0.26	0.4	0.31	6	8.7	1000	0	1	0	0.4	16	5	40	15	53	1	1
2	1	0	21	2	0	0.58	1	0.08	0.3	0.05	0.7	0.2	3	21.2	474	0	0	0	4.4	8	4	50	24	51	0	2
3	2	1	23	2	1	0.56	0.8	0.03	0.26	0	0.16	0.27	3	0	226.7	0	0	1	7	9	5	51	20	45	1	1
1	1	0	32	2	1	0	0.5	0.03	0.28	0	0.46	0	2	0.9	223	0	0	0	1.8	7	5	55	16	49	0	2
4	2	0	24	2	1	0	0.69	0	0.27	0	0.38	0	3	0	250	0	0	0	3.6	9	3	61	34	45	1	1
2	1	0	23	2	1	0	0.8	0	0.3	0.14	0.3	0.1	2	1.4	2583	0	0	0	9.7	13	7	40	22	38	0	2
3	2	1	26	2	0	0	0.5	0.02	0.3	0.21	0.4	0.72	4	14.2	567	0	1	0	2	10	5	51	29	51	0	2
3	2	1	27	2	0	0.36	1	0.04	0.22	0.26	0.38	0	3	7.9	700	0	1	0	5	13	7	51	30	70	1	1
3	1	0	33	2	0	0.34	1	0.24	0.3	0.07	0.58	0.18	8	13.2	1346.8	0	0	0	8.2	1	5	50	11	44	0	6
3	1	0	22	3	0	0.3	0.5	0.08	0.3	0.06	0.7	0.38	1	0	987	0	0	0	7	3	5	45	32	50	0	3
3	1	0	26	2	0	0.53	1	0.21	0.3	0.04	0.3	0.19	2	25.1	396	0	0	0	4.7	4	7	45	37	50	0	3
4	2	0	19	3	0	0	0.96	0	0.3	0.07	0.36	0.09	2	0		0	0	0	4.8	5	5	65	6	41	0	2
4	1	1	22	2	0	0.2	0.71	0.08	0.3	0	0.9	0	1	0	122	0	0	0	6.7	4	4	45	22	51	0	2
3	1	1	21	2	0	0	1	0.022	0.23	0.27	0.41	0.19	2	0.77	1130	0	0	0	1.8	15	7	43	18	48	1	1
1	1	0	26	2	0	0.42	1	0.14	0.3	0.06	0.5	0.2	10	10.6	461	0	0	0	8.2	8	6	45	22	45	0	5
1	1	0	21	3	0	0.4	1	0.17	0.3	0.06	0.73	0.25	3	7.9	483.3	0	0	0	0	14	1	61	31	54	1	1
4	1	0	22	2	1	0.6	0.7	0.15	0.3	0.02	0.51	0.05	2	17.6	131	0	1	0	8	8	4	45	26	60	1	1
1	1	1	19	2	0	0.6	1	0.1	0.3	0.04	0.5	0.2	2	10.6	27	0	0	0	6.5	7	4	41	25	58	1	1
1	2	0	17	2	0	0	0.53	0.02	0.2	0	0	0.54	4	5.8	216.7	0	0	0	8	21	4	51	29	54	1	1
2	2	1	22	2	0	0.75	1	0.02	0.3	0.13	0.47	0.56	4	2.7	877.8	0	0	1	1.5	1.6	8	50	29	51	0	2
3	1	0	20	2	0	0	0.83	0.2	0.26	0.78	0.6	0.41	3	20.01	149.4	0	1	0	0	7	4	40	34	46	0	5
3	1	0	19	2	0	0	0	0	0.2	0.26	0.57	0.26	5	0	702.7	0	0	0	4.5	17	1	41	18	53	1	1
2	1	0	23	2	0	0	1	0	0.28	0.04	0.47	0.28	1.5	0	96.1	0	1	0	7.3	6	3	40	29	46	0	2
4	2	0	24	2	1	0.1	0.52	0.07	0.28	0.13	0.93	0.36	5	144	2511	0	1	0	1.2	5	5	51	24	52	0	2
3	1	1	19	2	1	0	0.87	0.07	0.28	0.09	0.8	0.34	3	49	123.3	1	1	0	3.7	16	4	40	19	60	1	1
3	2	0	22	2	1	0.69	0.74	0.01	0.22	0.007	0.27	0.31	4	11.9	128.9	0	0	0	8	17	6	45	26	44	1	1
1	2	0	33	2	0	0	0.38	0.33	0.28	0.22	0.49	0.23	4	1.84	473.3	0	0	0	2.7	10	4	45	21	51	0	5
2	2	1	29	2	0	0.29	1	0	0.3	0	0.8	0.23	1	0	525	0	0	0	7.8	4	4	41	18	65	0	2
4	2	0	34	2	0	0.97	0.75	0	0.28	0	0.8	0.42	10	0	230	0	1	1	0.5	16	7	45	31	70	0	2
4	2	1	26	2	0	0	0.75	0.03	0.27	0	0.54	0.32	4	2.19	347.2	0	0	0	6.7	4	9	51	26	57	0	5
4	2	0	20	3	0	0.7	0.5	0.01	0.21	0	0.33	0.57	2	4.8	161.1	0	1	1	3	13	5	60	26	52	0	5
2	1	1	22	2	1	0	0.73	0.04	0.3	0	0.6	0.33	4	1.5	413.9	0	0	0	6	1	3	50	31	61	0	2
2	1	0	21	2	1	0.2	0.44	0.13	0.3	0.06	0.35	0.16	4	52.9	933.3	0	1	0	8.7	4	8	50	28	51	0	2
4	1	0	21	2	0	0	1	0.04	0.31	0.41	0.77	0.3	3	5.73	252.7	0	0	0	2.4	8	3	40	18	52	0	5
3	2	0	32	2	0	0.97	0.5	0	0.19	0	0.24	0.45	4	0	311.1	0	0	0	2	0	2	50	29	45	0	2
4	1	0	22	2	1	0.63	0.44	0.08	0.32	0.06	0.6	0.23	6	0	483	0	0	0	7	2	5	50	38	55	0	2
3	2	1	25	3	0	0	1	0	0.18	0	0	0.09	4	0.9	22.2	0	0	0	5	3	8	41	14	53	1	1
2	2	0	22	2	0	0.27	1	0.01	0.23	0	0	0.46	4	0.56	50	0	0	0	2	19	8	50	4	23	0	3
4	2	0	19	3	0	0.17	0.89	0	0.28	0.49	0.12	0	3	2.2	222	0	0	0	1	4	4	51	26	36	0	2
1	2	0	23	2	0	0	0.33	0.01	0.27	0.2	0.2	0.18	3	5.4	594.4	0	0	0	8	3	5	51	22	45	0	5
2	1	1	17	2	0	0	1	0.03	0.26	0.65	0.47	0.25	3	3.6	53.3	0	0	0	1	8	4	45	27	50	0	2
1	2	0	30	2	0	0.03	0.87	0.08	0.21	0	0.14	0.09	3	21.17	219	0	0	1	3	1	2	55	26	47	1	1
3	1	0	23	1	1	0	0.94	0.22	0.25	0.1	0.59	0.25	2	15.9	112.2	0	0	0	4.8	12	6	40	19	55	0	5
2	2	0	28	2	0	0	1	0	0.3	0.8	0.2	0.18	11	1.05	774.4	0	0	0	1	18	6	45	29	47	0	2
2	1	1	21	2	0	0.6	1	0.12	0.32	0.21	0.6	0.23	4	42.3	666.7	1	0	0	8	11	3	41	27	54	0	5
4	2	1	27	2	0	0.9	0.5	0.01	0.3	0	0.6	0.23	5	0.73	1533.3	0	0	1	0.5	13	8	40	35	58	0	2
3	1	0	20	3	0	0	0.75	0	0.26	0.11	0.49	0.21	1.5	0.2	43.8	0	1	0	6.1	7	6	51	8	47	1	1
4	1	0	23	2	0	0	0.31	0.05	0.23	0.24	0	0	3	14.4	250	0	0	0	3.8	7	5	45	15	45	0	5
1	1	0	22	2	0	0	1	0	0.31	0.06	0.3	0.17	4	0.53	207				0	6	2	31	19	36	1	1
4	2	0	22	2	1	0	0.69	0.03	0.21	0.6	0	0	1	2.9	55.6	0	0	1	5	4	1	51	6	40	1	1
2	2	0	23	2	0	0.41	0.75	0.04	0.23	0.8	0.67	0.56	2	9.6	465	0	0	0	2.5	7	3	40	34	60	0	6
3	1	0	24	1	1	0.7	0.2	0.1	0.3	0.07	0.5	0.2	3	0.7	448	0	0	0	6	4	1	50	19	52	0	6
4	1	0	26	3	1	0	0.86	0.03	0.18	0.03	0.39	0.12	5	3.7	1150	0	0	0	3.5	8	3	50	21	47	0	2
1	1	0	17	2	0	0	1	0	0.25	0.07	0.43	0.25	1	0	420	1	1	0	3.9	6	5	40	17	48	0	5
1	2	0	25	4	0	0.41	1	0	0.24	0	0.49	0.09	5	2.7	777.8	0	0	1	7	2	3	45	31	40	1	1
4	2	0	30	4	0	0	0.36	0.03	0.21	0.05	0.39	0.096	6	12.4	260	0	0	0	8.6	2	4	51	13	51	1	1
2	2	1	25	1	0	0.39	1	0	0.28	0.1	0.09	0	6	0	888.9	0	0	0	8.4	7	6	41	25	50	0	2
2	1	0	21	2	0	0.17	1	0.23	0.3	0.06	0.7	0.09	3	22	606	0	0	0	6.2	12	4	45	27	43	0	6
4	2	0	21	2	1	0.41	0.74	0.09	0.34	0.14	0.57	0.41	4	11.12	233.3	0	1	1	0.5	8	4	45	17	46	0	2
1	1	0	25	2	1	0	0.76	0.19	0.27	0.05	0.97	0.24	3	15.7	47.8	0	0	0	3.4	5	5	50	29	48	1	1
3	1	0	29	2	0	0.25	0.75	0.02	0.25	0.4	0.44	0.36	3	13.6	712.2	0	0	1	2	9	4	45	25	48	1	1
2	1	1	22	2	0	0.59	1	0.08	0.3	0.07	0.7	0.29	4	0.66	1388	0	0	0	1.5	8	10	45	28	49	0	2
3	1	1	26	2	0	0.56	1	0	0.3	0.06	0.53	0.2	7	3.2	899	0	0	0	1	2	7	45	29	65	0	5
4	1	0	24	2	0	0	1	0.016	0.36	0.87	0.86	0.21	4	1.97	534	0	1	1	0	12	3	37	17	41	0	5
1	1	0	26	2	1	0	0.81	0.22	0.28	0.27	0.58	0.24	3	5.3	262	0	0	0	0.4	10	5	46	22	37	1	1
1	2	0	26	2	0	0.39	0.75	0.22	0.26	0	0.33	0.5	2	51.1	66.7	0	0	0	0	2	4	50	20	50	0	3
4	2	1	20	2	0	0.37	1	0.31	0.33	0	0.59	0.51	5	26.45	450	0	0	0	0.2	13	10	41	24	59	0	6
3	2	0	17	1	0	0.39	1	0.01	0.26	0.5	0.52	0.09	3	0.2	182.8	0	1	0	3.5	16	3	51	20	56	0	2
1	2	0	36	2	0	0.6	1	0.05	0.35	0.5	0.3	0.72	3	3.1	222.2	0	0	1	3.5	5	3	45	33	56	0	3
2	1	1	19	2	0	0.3	0.92	0.2	0.3	0.06	0.51	0.09	2	1.04	210	0	0	0	1.8	5	2	45	20	56	0	5
4	1	1	19	2	1	0	0.81	0.12	0.24	0	0.83	0.36	3	23.5	33.9	0	0	0	6.1	3	3	50	10	46	1	1
1	2	0	29	2	0	0.35	1	0.12	0.24	0.1	0.77	0.42	11	26	594.4	1	1	0	0.5	10	4	41	16	42	0	2
1	1	0	35	3	0	0	0.53	0	0.27	0.07	0.77	0.3	3	1.4	232.2	0	0	0	1.3	1	8	40	17	47	1	1
4	1	0	24	2	1	0	0.31	0.08	0.28	0.03	0.48	0.2	2	13.5	219.4	0	0	0	5.2	12	7	40	12	47	0	2
3	1	0	23	3	1	0.4	0.2	0.08	0.3	0.06	0.6	0.2	2	0	215	0	0	0	2	7	6	45	32	53	1	1
1	1	1	22	2	1	0	0.75	0.012	0.29	0.14	0.72	0.34	3	1.06	205.5	0	1	0	6.3	10	11	45	25	53	0	2
4	2	0	23	2	0	0	1	0.23	0.38	0.15	0	0.47	0.5	49.2	160	0	1	1	1	17	2	40	20	45	0	2
1	1	0	23	1	1	0.2	0.7	0.12	0.3	0.05	0.4	0.05	2	1.5	153	0	0	0	6.6	4	5	55	14	43	1	1
4	2	1	24	2	1	0	0.7	0.1	0.3	0	0.2	0.7	5	1.1	900	0	0	1	4.5	9	5	51	19	52	0	2
3	2	0	27	2	1	0.55	0.55	0.09	0.34	0	0.067	0.17	3	1.36	104.4	1	0	0	3	4	5	51	27	63	0	2
1	2	0	21	2	0	0.02	0.75	0.1	0.23	0.09	0.03	0.12	3	7.5	40	1	0	0	9	9	6	45	19	36	1	1
3	2	1	25	2	0	0.83	1	0	0.41	0	0.06	0.28	5	0	163.9	0	0	1	4.8	9	5	41	34	60	1	1
3	2	1	25	2	1	0	0.7	0	0.3	0	0.2	0.46	3	0	472	0	1	1	0	0	3	45	13	50	0	2
3	2	1	20	2	0	0	1	0	0.12	0	0.6	0.58	3	1.76	455.6	1	1	0	3.4	11	9	51	10	49	0	2
3	2	0	18	2	0	0.63	0.94	0.01	0.24	0.2	0.35	0.18	3	0.6	179.4	0	0	0	0.3	10	8	50	19	49	1	1
3	1	0	24	2	0	0	0.29	0	0.17	0	0.53	0	1	0	40	0	0	0	1.9	3	5	45	14	38	1	1
4	1	0	18	2	1	0.6	0.27	0.08	0.3	0	0.9	0	1	1.8	28	0	0	0	0.1	1	1	45	10	33	0	2
3	2	0	25	2	0	0.2	1	0	0.22	0.67	0.38	0	4	0	588.8	0	0	1	5	8	4	41	23	45	0	2
2	2	0	25	2	0	0.33	0.5	0.03	0.27	0.06	0	0.27	3	4.7	858.3	0	0	1	2.6	1	4	41	14	48	0	6
2	2	0	29	2	0	0	0.5	0.01	0.23	0.05	0	0.09	6	5.4	1888.9	0	1	1	1	1	4	50	27	46	0	2
4	1	0	21	2	1	0.6	0.69	0.12	0.3	0.06	0.3	0.09	2	6.6	237	0	0	0	4.1	2	4	50	11	40	1	1
2	2	1	25	4	1	0.5	0.81	0.04	0.29	0.55	0.72	0.63	6	2.6	341.7	0	0	0	4.3	4	4	46	25	53	0	2
1	2	0	23	2	0	0.31	1	0.08	0.33	0.47	0.8	0.27	4	12	666.7	0	1	1	0	9	6	40	24	43	0	2
1	2	1	20	2	0	0.36	1	0.08	0.3	0.2	0.64	0.63	3	5.29	1135	1	0	1	3.5	6	3	41	31	46	0	5
3	2	0	24	2	0	0.31	1	0.1	0.29	0.2	0.1	0.37	5	10.2	341.7	0	1	1	7.3	4	4	41	11	36	0	3
1	1	0	20	2	0	0	1	0.04	0.4	0.03	0.73	0.25	5	9.9	250	0	0	0	5	20	6	40	27	53	0	4
1	2	0	17	2	0	0.26	1	0.08	0.25	0.4	0	0.1	2	3.8	122.2	0	1	1	10	15	5	50	3	40	0	2
1	1	0	19	3	0	0.42	0.5	0.1	0.3	0.05	0.47	0.1	2	1.36	238	0	0	0	7.5	14	7	55	13	36	0	2
2	2	1	21	2	0	0	1	0.24	0.38	0.66	0.7	0.18	4	47.8	777.8	0	0	1	5	5	2	40	19	53	0	2
4	2	1	23	2	0	0.86	1	0.09	0.32	0.27	0.2	0.36	8	27.4	1300	1	1	1	5	5	13	40	18	44	0	2
1	2	1	25	3	0	0.39	1	0.05	0.21	0.08	0.2	0.29	4	2.16	1925	0	0	0	1	9	4	41	14	40	0	2
2	1	0	24	1	1	0.4	0.2	0.08	0.24	0	0.2	0.05	2	1.8	41	0	0	0	9	14	4	41	18	59	1	1
1	2	1	39	2	0	0.4	1	0.01	0.25	0	0.6	0.47	24	0.4	500	0	0	1	5	7	1	41	29	64	0	2
1	2	1	20	3	0	0	1	0	0.27	0.4	0.2	0.36	1	0	85.6	1	0	1	0	11	4	51	20	51	0	2
4	1	0	32	2	0	0	0.2	0	0.29	0.61	0.88	0.26	3	0	1005.6	1	0	0	0.7	1	4	40	18	52	0	2
1	2	1	21	2	0	0.17	1	0	0.31	0	0.7	0.72	1	0	816.7	1	0	1	0.5	9	5	51	32	51	0	2
1	2	0	22	3	0	1	1	0.1	0.38	0	0.9	0.44	3	8.2	11.1	1	0	0	3.5	13	7	51	9	58	1	1
1	1	1	20	2	0	0.53	1	0.22	0.3	0.05	0.4	0.41	3	35.3	487	0	0	0	0.6	14	7	45	5	37	0	5
3	1	0	24	2	0	0	1	0.04	0.36	0.087	0.8	0.3	2	1.72	338.9	1	0	0	0	16	7	45		24	0	6
2	1	0	30	2	1	0	0.81	0.013	0.25	0.01	0.79	0	3	6.26	118.3	0	1	0	2.2	12	2	35	2	32	0	2
4	1	0	27	2	1	0	0.24	0	0.25	0	0	0	1	0	511	0	0	0	5.4	20	2	55	7	49	0	2
2	2	0	22	2	0	0.42	0.75	0.07	0.18	0.07	0.75	0.27	4	3.1	96	0	0	0	1.8	15	2	51	21	44	0	2
2	1	0	23	2	0	0	0.85	0	0.29	0	0.6	0.3	6	9.9	391.1	0	0	0	5.6	11	1	40	15	41	0	2
4	2	0	31	2	1	0.25	0.91	0.02	0.27	0.18	0.2	0.28	2	3.57	197	0	0	1	1.8	2	2	41	14	38	0	5
4	2	0	22	2	0	0.44	0.75	0.005	0.29	0.22	0.52	0.17	4	0.66	566.7	0	1	0	4.7	6	5	41	30	47	0	2
4	2	0	17	2	0	0	1	0.41	0.23	0	0.34	0.36	2	7.9	172.2	1	1	0	4.7	14	6	51	20	40	0	2
4	2	1	24	3	1	0.59	0.84	0.01	0.26	0	0.2	0	4	1.44	77	0	0	0	0	7	3	51	24	48	0	2
4	2	0	30	2	0	0.91	1	0.06	0.37	0	0.34	0.61	1	4.4	250	0	1	0	8.5	0	5	40	18	70	0	2
1	1	1	26	2	0	0.63	1	0.1	0.3	0.06	0.2	0.14	4	15.8	711	0	0	0	10	2	3	50	8	39	1	1
1	2	0	25	4	1	0	0.88	0	0.33	0	0.63	0.72	6	2.57	150	0	1	1	0	19	5	50	9	43	1	1
3	1	0	21	2	0	0	0.75	0.07	0.3	0	0.56	0.28	3	13.1	166.1	1			1.8	4	5	33	8	39	1	1
4	1	0	24	3	1	0	0.26	0	0.26	0	0.53	0	5	6.4	116.7	0	0	0	0	1	4	60	8	43	1	1
2	1	0	26	2	1	0.3	0.18	0.12	0.3	0.05	0.7	0.05	2	14.1	489	0	0	0	3	2	5	45	24	51	0	5
4	1	0	24	3	1	0	0.24	0.04	0.29	0.2	0.2	0.1	0.5	17.5	108	0	0	0	4.6	12	6	40	10	38	0	2
2	2	0	21	2	0	0	0.75	0.07	0.2	0	0	0.1	2	5.46	117.7	0	0	0	3.4	0	3	51	13	38	0	5
4	2	0	24	2	0	0.36	1	0.03	0.21	0.27	0.03	0	1	30.4	1038	0	0	0	1.7	8	5	51	18	33	0	2
1	2	0	29	2	0	0.29	1	0	0.27	0.1	0	0.18	4	0	208.3	0	0	0	4.8	15	2	51	12	52	1	1
2	2	0	21	2	0	0	1	0.06	0.33	0	0.22	0.23	6	22.5	583.3	0	0	1	0.2	16	6	50	18	54	0	2
2	2	0	19	2	0	0.18	1	0	0.23	0	0.3	0.05	2	0.44	147.2	0	0	0	4.5	9	5	45	19	33	0	2
1	2	0	28	2	0	0	1	0.01	0.23	0.2	0.05	0.36	2	57.3	766.7	0	0	1	0	3	3	45	26	51	0	2
3	2	0	26	2	0	0.26	0.75	0	0.26	0	0.15	0.27	3		1481	0	1	0	0	14	5	51	23	46		
2	2	0	21	2	0	0	1	0	0.29	0.4	0.28	0	4	0	351	0	0	0	5	14	8	61	10	41	0	2
3	1	0	20	2	1	0.58	0.56	0.14	0.3	0.05	0.41	0.2	2	37.1	844.4	1	0	0	1.5	12	5	55	11	39	0	2
4	2	0	30	4	1	0	0.18	0.12	0.32	0	0.35	0.29	3	11.8	211.1	0	0	1	1	1	4	51	17	37	0	2
2	1	0	25	3	0	0.6	1	0.23	0.3	0.05	0.4	0.05	5	3.5	92	0	0	0	8	3	5	41	7	40	0	5
1	1	1	18	2	0	0.08	1	0.08	0.3	0.04	0.7	0.05	3	0.2	81	0	0	0	4.5	10	5	55	19	53	0	2
3	1	0	26	2	0	0.6	0.5	0.08	0.3	0.06	0.2	0.16	1	0	930	0	0	0	2	1	5	45	9	39	1	1
3	2	0	20	2	1	0.17	0.26	0.07	0.31	0.02	0.32	0.44	4	6.48	427.8	0	1	1	1.3	10	7	51	17	46	1	1
2	2	0	17	1	0	0	1	0	0.23	0	0.37	0	1	0	60	0	0	0	0.3	1	3	65	4	35	1	1
2	2	0	26	2	0	0	1	0.05	0.19	0.25	0	0.19	5	3.1	468	0	1	0	6.5	9	5	41	32	42	0	5
2	2	0	26	2	0	0.6	0.75	0.01	0.38	0.5	0.84	0.76	3	1.87	158.9	0	0	1	0	15	5	45	19	37	0	2
2	2	0	26	1	0	0.48	1	0.02	0.24	0.14	0.14	0.45	5	17.6	202.8	1	0	0	0	9	3	41	16	47	0	3
2	1	0	22	3	1	0.58	0.69	0.04	0.3	0.06	0.2	0.16	3	7.94	888.9	0	0	0	5.7	5	3	50	23	36	0	5
3	1	1	23	2	0	0	0.7	0	0.27	0.24	0.65	0	4	1.6	1086	0	0	0	1.9	12	7	31	34	61	1	1
2	1	0	30	2	0	0	1	0.12	0.33	0.46	0.73	0.21	2	9.74	913.8	0	1	0	0.9	16	7	50	27	43	0	2
4	1	0	20	2	1	0.4	0.76	0.21	0.32	0.05	0.34	0.31	2	31.7	236	0	0	0	3	14	6	50	20	42	0	2
3	1	0	24	2	1	0	0.73	0.016	0.37	0	0.4	0.25	3	5.3	255	0	0	0	4	2	4	60	3	52	1	1
3	2	0	20	2	0	0	1	0	0.26	0	0.1	0.87	3	0	147.7	0	0	0	0.1	15	5	51	18	41	0	2
4	1	0	19	1	0	0.51	1	0.26	0.3	0.05	0.3	0.23	5	13.2	476	0	0	0	3.5	3	1	45	43	72	0	5
2	1	1	27	3	1	0.6	0.11	0.08	0.3	0.05	0.26	0.18	1	0	328	0	0	0	2.2	8	5	51	20	51	1	1
3	1	1	19	2	0	0.42	1	0.23	0.3	0.05	0.58	0.1	3	11.9	792	0	0	0	7	13	6	45	39	65	1	1
1	1	0	27	2	1	0	0.29	0.05	0.3	0.23	0.4	0.3	2	7.3	127.7	0	0	0	0.9	20	6	50	25	52	1	1
4	1	1	22	3	1	0.56	0.18	0.12	0.3	0.2	0.67	0.11	3	2.6	988	0	0	0	4	8	9	45	23	44	0	2
4	2	0	27	2	1	0	0.34	0.02	0.3	0	0.3	0.4	5	2.7	171.1	0	0	1	2	9	6	45	7	52	0	6
1	2	0	21	2	0	0	1	0.3	0.16	0.04	0.25	0.14	4	2.1	280	0	0	0	1	9	5	51	10	28	0	4
2	2	0	27	2	0	0	1	0	0.11	0.4	0	0.18	6	0	2277	0	0	0	0.4	14	5	41	22	32	0	2
3	2	0	21	2	0	0	0.5	0.05	0.23	0.5	0.23	0.28	4	2.9	821.1	0	1	0	1.2	18	5	41	26	38	0	2
3	1	0	21	2	0	0	1	0.03	0.3	0	0.47	0.25	2	5.6	183	0	1	0	5	10	6	40	20	49	0	5
4	2	0	25	2	1	0	0.85	0.08	0.12	0	0.04	0	2	15.8	159.4	0	1	0	0	9	5	50	14	31	0	2
1	2	0	26	2	0	0	0.5	0.19	0.32	0.8	0.24	0.39	10	22.5	202.8	0	0	1	1.5	2	3	45	11	56	0	2
2	2	1	21	2	0	0.89	1	0.03	0.26	0	0.53	0.5	3	6.37	227.8	0	0	1	10	8	4	50	34	69	0	3
4	2	1	18	2	0	0.34	0.91	0.04	0.25	0	0.47	0.55	1.5	2.6	153.3	0	1	1	7	13	6	51	17	52	0	2
2	1	0	33	2	0	0	0.5	0	0.26	0.24	0.23	0	1	0	112.2	0	0	0	7.8	9	6	31	21	49	0	2
4	2	0	23	2	0	0.31	1	0.05	0.3	0.28	0	0.18	3	7.3	394	0	1	0	9.5	10	0	45	11	43	1	1
2	2	0	28	2	0	0.25	0.75	0.02	0.2	0.6	0.08	0.2	2	17.8	1555.6	0	1	1	6.5	3	4	41	17	37	0	3
1	2	0	17	1	0	0	1	0.01	0.21	0.2	0	0.18	2	2.2	483	0	0	1	5	7	5	41	7	30	0	5
4	2	0	23	2	0	0.08	1	0	0.3	0.8	0.32	0.36	5	0	850	0	0	1	7	8	4	41	24	39	0	2
2	2	0	21	2	0	0.2	1	0.04	0.21	0.13	0.24	0.09	4	8.96	192	1	0	1	2	11	3	41	12	36	0	2
3	1	0	24	2	0	0	0.98	0.044	0.31	0.25	0.75	0.34	4	3.17	130	0	0	1	1.3	5	5	40	16	44	0	5
1	2	0	25	4	0	0	0.5	0	0.24	0.16	0.33	0	5	0	1383	1	0	0	1	3	2	44	2	37	0	2
3	1	0	35	2	0	0.4	0.56	0.48	0.3	0.05	0.6	0.36	6	68.8	844	0	0	0	9.5	3	2	41	33	57	0	5
3	2	0	31	2	0	0	0.5	0	0.3	0	0.27	0.23	2	0	339	0	1	0	0	2	5	50	29	53	0	2
1	2	1	21	2	0	0	1	0.006	0.14	0	0	0.09	4	0.2	267	0	0	0	3.5	3	3	41	10	43	1	1
3	2	1	21	2	0	0.35	1	0.01	0.25	0.07	0.61	0.45	4	0.13	388.9	0	0	1	2	12	4	41	30	51	0	2
2	1	0	38	2	0	0	0.5	0.07	0.3	0.25	0.87	0	3	14.95	495	0	0	0	0.4	1	4	40	25	48	0	2
1	2	1	19	2	0	0.34	1	0	0.24	0.13	0	0	5	3.04	377.8	0	1	0	7.8	14	13	41	19	61	0	5
4	1	0	21	2	1	0.46	0.69	0.31	0.3	0.05	0.61	0.21	4	13.2	118	0	0	0	4.5	2	5	55	13	45	1	1
2	2	0	25	2	0	0	0.75	0.1	0.15	0.05	0.2	0.45	7	10.1	0.6	0	0	0	1	11	3	45	18	38	0	2
2	1	1	19	2	1	0.7	0.1	0.11	0.3	0.05	0.54	0.3	3	0.8	143	0	0	0	1	5	3	48	18	50	1	1
4	1	1	26	2	0	0.17	1	0.09	0.3	0.05	0.43	0.05	5	1.3	178	0	0	0	8.3	10	5	41	32	54	0	5
3	2	0	25	2	0	0.06	1	0.03	0.22	0.03	0.14	0.29	7	0.66	183.3	0	0	1	7.4	14	3	41	24	56	1	1
1	1	0	23	2	0	0	1	0.05	0.26	0.14	0.52	0.29	3	3.08	426.6	0	0	0	3	8	2	43	9	43	0	2
1	2	0	28	1	0	0.52	1	0.05	0.18	0.35	0	0.38	13	3.9	1400	0	0	0	0.2	1	4	41	23	45	1	1
4	2	0	27	2	0	0.33	1	0	0.16	0.05	0.1	0.38	9	0	634	0	1	0	3.4	6	8	41	14	45	0	2
2	1	0	20	2	0	0	1	0.03	0.3	0.9	0.67	0.23	4	7.1	211.1	0	0	0	4.7	3	5	40	8	43	0	5
4	2	0	23	2	0	0.42	0.75	0.04	0.26	0.6	0	0.07	4	6.7	1733.3	0	0	1	0	9	4	41	8	33	0	2
2	2	1	24	3	1	0	0.68	0.02	0.32	0	0.24	0.45	4	9	561.1	1	1	1	1.5	6	3	60	8	47	0	2
4	2	1	23	2	0	0	1	0.12	0.3	0.23	0.34	0.43	5	16.7	847.2	0	1	1	3	10	4	45	19	47	0	2
2	1	0	25	2	0	0.74	0.5	0.1	0.3	0.06	0.2	0.19	6	2.6	497	0	0	0	8.4	2	3	41	18	55	1	1
1	2	1	24	4	0	0	0.75	0.02	0.3	0	0.45	0.27	2	8.5	566.7	0	0	1	1.5	2	2	41	20	50	1	1
3	2	0	29	2	1	0.41	0.8	0.09	0.22	0	0.2	0.27	1	14.8	93.3	0	0	1	2	18	10	51	21	48	0	2
1	1	0	27	3	0	0.2	0.75	0.2	0.3	0.04	0.5	0.05	4	10.6	61	0	1	0	4	9	6	48	14	44	0	3
2	1	0	20	3	0	0		0	0.31	0	0.46	0	1	2.07	47.7	0	0	0	0	5	5	54		26	0	5
2	1	0	23	1	0	0.53	1	0.08	0.3	0.04	0.8	0.14	2	0.9	187	0	0	0	5.7	8	2	51	25	48	0	2
4	1	0	21	2	1	0.2	0.7	0.09	0.3	0.05	0.5	0.05	3	1.4	360	0	0	0	7.5	2	2	45	27	51	0	5
4	1	0	20	2	0	0.3	0	0.09	0.3	0	0.8	0	3	0.7	250	0	0	0	3.8	14	7	41	18	45	1	1
1	2	0	19	2	0	0.19	1	0	0.23	0.07	0.23	0.3	3	0	222.2	0	0	0	6.1	1	2	41	26	55	1	1
3	2	0	20	2	0	0.99	1	0	0.26	0.28	0.56	0.65	4	0	863	0	0	1	0.8	8	5	41	9	41	1	1
1	2	1	21	2	0	0	1	0	0.23	0	0	0.2	2.5	1.99	169.4	0	0	0	2	12	5	41	11	41	1	1
4	1	0	20	2	1	0.4	0.77	0.2	0.3	0	0.5	0	2	5.3	115	0	0	0	5.6	7	5		14	47	0	5
1	1	0	28	2	1	0	0.3	0.05	0.2	0.06	0.55	0.26	3	6.2	169.4	0	0	0	1.3	4	4	60	13	50	1	1
2	2	0	23	2	0	0	1	0.11	0.15	0.2	0	0.18	4	11.1	24.4	0	0	0	0.5	0	0	51	15	47	0	5
1	2	0	19	1	0	0.39	1	0	0.32	0.2	0	0.28	3	0	861	1	1	0	6.5	7	7	41	24	45	0	5
1	2	1	21	2	0	0.29	1	0	0.24	0	0.7	0.51	1	0	902.8	0	1	1	2.4	7	5	45	21	48	0	2
3	2	0	21	3	0	0	1	0.03	0.09	0.2	0	0.36	1	12.6	5.8	0	0	0	3	3	3	51	13	49	1	1
1	2	0	27	2	1	0	1	0.3	0.35	0	0	0.18	5	56	177	0	1	0	2.7	5	4	51	22	46	1	1
1	2	0	21	2	1	0	0.9	0.11	0.3	0.6	0.07	0.09	4	9.5	416.7	0	0	1	6	10	3	50	18	41	0	2
4	1	0	22	2	0	0	0.5	0.32	0.3	0	0.06	0	2	15.8	217.8	0	0	0	4	5	4	40	19	48	0	2
2	2	1	21	2	0	0.02	1	0.02	0.29	0.2	0.35	0.23	3	2.9	455.6	1	0	0	0.5	10	6	50	4	50	0	2
4	2	1	22	2	0	0	1	0.08	0.31	0.8	0.63	0.51	4	12.5	833.3	1	1	1	5	14	4	45	20	40	0	2
3	2	0	22	2	1	0.33		0.01	0.23	0	0.09	0	4	0.7	330	0	1	0	0.3	10	2	41	15	35	0	6
1	2	0	23	2	0	0.1	0.59	0	0.25	0.1	0.1	0	3	0	844.4	0	1	0	4.5	5	2	41	17	47	0	2
4	2	0	25	2	0	0	1	0	0.25	0.45	0.3	0.18	3	0	110.6	0	1	0	0.8	6	6	50	21	45	0	2
1	2	0	24	2	0	0	1	0.21	0.21	0.2	0.7	0.33	4	31.6	307.8	0	0	1	1.5	8	5	50	12	40	1	1
1	2	1	18	2	0	0	1	0.02	0.29	0	0.28	0.33	4	2.7	486.1	0	0	1	4	14	5	45	22	62	0	5
3	1	0	28	2	0	0.4	1	0.12	0.3	0.07	0.2	0.25	2	4.8	1337	0	0	0	10	10	5	48	26	62	1	1
