q2,dieta,time,b
"4,079",1,1,1
"3,541",1,1,2
"3,298",1,1,3
"2,871",1,1,4
"4,859",1,2,1
"5,047",1,2,2
"4,679",1,2,3
"4,648",1,2,4
"4,368",2,1,5
"3,752",2,1,6
"3,802",2,1,7
"3,578",2,1,8
"5,668",2,2,5
"5,848",2,2,6
"4,844",2,2,7
"5,393",2,2,8
"4,169",3,1,9
"4,416",3,1,10
"4,123",3,1,11
"4,403",3,1,12
"5,709",3,2,9
"5,666",3,2,10
"5,059",3,2,11
"4,496",3,2,12
"4,928",4,1,13
"4,941",4,1,14
"4,674",4,1,15
"4,905",4,1,16
"5,608",4,2,13
"5,291",4,2,14
"5,038",4,2,15
"5,208",4,2,16
